<svg width="502" height="109" viewBox="0 0 502 109" fill="none" xmlns="http://www.w3.org/2000/svg">
<path d="M370.037 50.9092C367.768 63.6606 374.687 66.8794 381.042 66.8794C390.34 66.8794 394.041 60.0016 395.114 53.7704L404.536 0H429.461L419.213 58.2959C417.067 70.5796 408.003 86.6736 379.749 86.6736C359.721 86.6736 340.408 78.5716 345.649 48.4057L354.122 0H378.978L370.037 50.9092Z" fill="#1BBCC0"/>
<path d="M175.837 0L164.516 64.651H196.346L192.77 84.6791H136.015L150.926 0.0275169L175.837 0Z" fill="#0C4152"/>
<path d="M201.711 69.5067C201.638 66.942 202.134 64.393 203.164 62.043C204.194 59.6931 205.732 57.6006 207.667 55.9163C212.44 51.9822 220.666 49.7125 230.914 49.0385L244.752 48.0894L245.11 45.1044C245.701 40.455 243.555 38.0753 238.906 38.0753C234.972 38.0753 232.111 39.7397 231.519 45.2282H207.997C209.194 34.8565 216.471 23.6458 239.828 23.6458C261.768 23.6458 271.19 33.4259 268.205 50.5928L264.863 70.0294C263.978 74.8652 263.582 79.7777 263.68 84.6928H240.57C240.478 81.7726 240.718 78.8515 241.286 75.9856C238.314 82.657 230.804 86.1234 221.615 86.1234C209.813 86.0821 201.711 80.236 201.711 69.5067ZM242.84 63.5368L243.679 58.4197L237.709 58.7774C229.126 59.2451 226.512 62.9041 226.512 66.5218C226.512 70.4558 229.841 71.7764 233.184 71.7764C235.542 71.8988 237.857 71.1128 239.653 69.5801C241.449 68.0475 242.59 65.8847 242.84 63.5368Z" fill="#0C4152"/>
<path d="M264.656 106.699L267.641 90.1924C270.911 91.2326 274.336 91.698 277.765 91.568C281.342 91.568 285.166 90.1924 286.706 86.2033L287.422 84.2913L275.619 24.9225H300.902L302.8 58.1833C303.051 60.4715 303.014 62.7821 302.69 65.0611H303.048C303.527 62.7156 304.203 60.4148 305.07 58.1833L318.303 24.9225H342.98L311.342 87.7577C301.576 107.015 290.365 108.391 278.439 108.391C273.787 108.507 269.142 107.937 264.656 106.699Z" fill="#0C4152"/>
<path d="M501.994 49.755C501.994 64.4184 492.93 80.3886 461.938 80.3886H448.183L443.217 109H418.306L433.203 24.3073H468.376C485.419 24.3073 501.994 29.8095 501.994 49.755ZM475.405 50.828C475.405 42.5747 468.734 41.6393 463.85 41.6393H455.143L451.209 63.6481H459.916C471.237 63.7032 475.405 57.3206 475.405 50.828Z" fill="#1BBCC0"/>
<path d="M24.1408 55.3141C24.2096 54.9977 49.2309 12.1905 49.2309 12.1905H33.302C31.6046 12.1939 29.9413 12.6674 28.4966 13.5585C27.0519 14.4496 25.8823 15.7234 25.1174 17.2387C24.4962 18.4775 24.1669 19.8421 24.1546 21.2279L24.1408 55.3141Z" fill="#1BBCC0"/>
<path d="M1.10048 38.8042L16.6305 65.0635L16.4517 26.3279H8.34965C7.25381 26.3261 6.16838 26.5404 5.15544 26.9585C4.1425 27.3766 3.22193 27.9903 2.44642 28.7646C1.6709 29.5388 1.05566 30.4583 0.635881 31.4706C0.216105 32.4828 3.02337e-05 33.5679 3.17257e-05 34.6638C-0.00399634 36.1167 0.375611 37.545 1.10048 38.8042Z" fill="#A9D9DC"/>
<path d="M25.6132 73.1917C25.6082 74.4232 25.8129 75.6466 26.2184 76.8094L26.3422 77.1671V77.2771C26.4381 77.5353 26.5483 77.7878 26.6723 78.0337C27.171 79.0938 27.8402 80.065 28.6531 80.9086C29.6764 82.0037 30.9108 82.8803 32.282 83.4855C33.6532 84.0907 35.1327 84.412 36.6314 84.43H82.1209C83.6939 84.4296 85.2459 84.0686 86.6576 83.3747C88.0693 82.6808 89.3031 81.6724 90.2642 80.4271L127.968 16.6427L128.752 15.2672C129.531 13.6973 129.897 11.9547 129.815 10.204C129.733 8.45335 129.206 6.75256 128.283 5.26251C127.36 3.77246 126.073 2.54238 124.542 1.68866C123.012 0.83495 121.289 0.385812 119.536 0.383698H72.6846C71.0134 0.384667 69.3676 0.792121 67.889 1.57096C66.4104 2.34979 65.1435 3.4766 64.1974 4.85422L63.4822 6.06472L26.7136 68.3223C26.5307 68.7212 26.37 69.1299 26.2322 69.5465C26.0949 69.9432 25.9801 70.3473 25.8883 70.757C25.7034 71.5553 25.6111 72.3723 25.6132 73.1917Z" fill="#0C4152"/>
</svg>
